<?xml version="1.0" encoding="utf-8"?>
<!-- Generator: Adobe Illustrator 16.0.0, SVG Export Plug-In . SVG Version: 6.00 Build 0)  -->
<!DOCTYPE svg PUBLIC "-//W3C//DTD SVG 1.1//EN" "http://www.w3.org/Graphics/SVG/1.1/DTD/svg11.dtd">
<svg version="1.1" xmlns="http://www.w3.org/2000/svg" xmlns:xlink="http://www.w3.org/1999/xlink" x="0px" y="0px" width="300px"
	 height="300px" viewBox="0 0 300 300" enable-background="new 0 0 300 300" xml:space="preserve">
<g id="circle" display="none">
	<circle display="inline" fill="#99AAC3" cx="150.641" cy="150.141" r="144.359"/>
</g>
<g id="circle_x5F_lite">
	<circle fill="#F3F5F8" cx="150.641" cy="150.141" r="144.359"/>
</g>
<g id="jb" display="none">
	<circle display="inline" fill="#F3F5F8" cx="150.543" cy="149.891" r="144.109"/>
	<g id="Capa_2" display="inline">
	</g>
	<g display="inline">
		<path fill="none" d="M149,66v-0.972V49.413c0-2.565-1.733-4.413-4.296-4.413h-53.73H52.369c-6.839,6-13.057,13-18.556,21h57.161
			H149z"/>
		<path fill="#7A7B7C" d="M90.824,172H75.031c-4.8,0-9.031-3.658-9.031-8.461v-9.848C66,151,67.566,149,69.487,147H55v19.799
			C55,174.496,61.488,181,69.188,181H91v-9H90.824z"/>
		<path opacity="0.4" fill="#243547" d="M216.5,248c0,1.104-9.29,2-20.75,2S175,249.104,175,248s9.29-2,20.75-2
			S216.5,246.896,216.5,248z"/>
		<path fill="#7A7B7C" d="M124,166.799V147h-12.416c1.922,2,3.416,4,3.416,6.691v9.848c0,4.803-4.162,8.461-8.964,8.461H91v9h19.423
			C118.123,181,124,174.496,124,166.799z"/>
		<rect x="185" y="232" fill="#7A7B7C" width="21" height="16"/>
		<path fill="#243547" d="M55,146v1h14.487c1.504-1,3.436-2,5.544-2h15.793H91v-6.378V66H33.813C17.349,88,7.339,116,6.497,146H55z"
			/>
		<path fill="#F3F5F8" d="M149,66H91v72.622V145h15.036c2.109,0,4.042,1,5.548,2H124v-1h96V79.62c0-7.703-6.019-13.62-13.717-13.62
			H168v-1h-19V66z"/>
		<path fill="#243547" d="M91,26H77.324c-8.992,5-17.355,12-24.956,19H91V26z"/>
		<path fill="#F3F5F8" d="M144.704,45c2.563,0,4.296,1.847,4.296,4.413V65h19V49.413C168,36.604,157.514,26,144.704,26H91v19
			H144.704z"/>
		<path fill="#243547" d="M91,184.411V181H69.188C61.488,181,55,174.496,55,166.799v-19.798V146H6.497
			c-0.039,1-0.063,2.748-0.063,4.123C6.435,180.552,15.91,209,32.059,232H91V184.411z"/>
		<path fill="#F3F5F8" d="M124,146v1.001v19.798c0,7.697-5.877,14.201-13.577,14.201H91v3.411V232h94.37h20.913
			c7.698,0,13.717-6.381,13.717-14.087v-70.912V146H124z"/>
		<path fill="#A7AEB5" d="M66,153.691v9.848c0,4.803,4.23,8.461,9.031,8.461H91v-27H75.031c-2.108,0-4.211,0.752-5.715,2.001
			C67.395,148.595,66,151,66,153.691z"/>
		<path fill="#A7AEB5" d="M91,172h-0.026h15.062c4.803,0,8.964-3.658,8.964-8.461v-9.848c0-2.691-1.359-5.097-3.281-6.69
			c-1.506-1.249-3.574-2.001-5.683-2.001H90.974H91V172z"/>
	</g>
	<circle display="inline" fill="#243547" cx="163" cy="106" r="24.5"/>
	<circle display="inline" fill="#243547" stroke="#FFFFFF" stroke-width="2" stroke-miterlimit="10" cx="163" cy="106" r="21"/>
	<g display="inline">
		<path fill="#F3F5F8" d="M151.909,95.639l2.747-0.783l4.058,14.242c1.61,5.652-0.674,8.182-4.336,9.226
			c-1.012,0.288-2.307,0.417-3.082,0.332l-0.228-2.359c0.631,0.06,1.506,0.015,2.422-0.246c2.463-0.702,3.602-2.221,2.413-6.39
			L151.909,95.639z"/>
		<path fill="#F3F5F8" d="M159.314,93.836c1.128-0.595,2.97-1.324,4.896-1.873c2.748-0.783,4.65-0.813,6.283-0.117
			c1.339,0.506,2.361,1.581,2.839,3.254c0.585,2.053-0.259,4.24-2.269,5.7l0.019,0.063c2.165-0.071,5.011,0.928,5.91,4.086
			c0.521,1.831,0.191,3.428-0.586,4.776c-1.097,1.781-3.316,3.097-6.791,4.086c-1.895,0.54-3.383,0.827-4.335,0.962L159.314,93.836z
			 M164.546,101.769l2.494-0.71c2.906-0.828,4.18-2.83,3.595-4.882c-0.71-2.494-2.885-2.934-5.664-2.142
			c-1.263,0.36-1.962,0.662-2.378,0.882L164.546,101.769z M167.452,111.97c0.564-0.059,1.362-0.252,2.341-0.531
			c2.843-0.81,5.167-2.599,4.285-5.694c-0.827-2.905-3.665-3.395-6.665-2.54l-2.273,0.648L167.452,111.97z"/>
	</g>
	<line display="inline" fill="none" stroke="#7A7B7C" stroke-width="4" stroke-miterlimit="10" x1="6" y1="146" x2="220" y2="146"/>
</g>
<g id="cruises" display="none">
	<g display="inline">
		<path fill="none" d="M150,5.782c-33.292,0-63.948,11.276-88.369,30.21c6.442,0.275,11.583,5.733,11.583,12.242
			c0,1.633-0.333,2.766-0.916,4.766c0,0,0,0,0.005,0c4.146,0,7.505,3.197,7.505,7.341c0,4.146-3.36,7.422-7.505,7.422
			c-4.145,0-7.507-3.398-7.507-7.544c0-0.224,0.049-0.457,0.068-0.675c-1.19,0.391-2.435,0.644-3.755,0.644
			c-4.044,0-7.601-2.008-9.799-5.052c-1.936,0.828-4.063,1.282-6.305,1.282c-1.488,0-2.922-0.219-4.29-0.597
			c-21.855,25.299-34.92,58.265-34.92,94.32C5.796,158.43,6,166.55,8,174.455V135.65c0-3.481,1.567-6.731,4.448-8.69l17.145-11.93
			c1.472-0.999,4.053-2.03,5.831-2.03H63V97h17.177H94v16h24.036c3.867,0,6.964,3.568,6.964,7.436v9.683
			c-17,5.76-31.193,12.299-44.841,18.963c-4.086,1.996-8.102,4-12.111,5.998c-18.798,9.378-36.746,18.287-59.302,24.967
			c0.485,2.306,1.027,4.591,1.622,6.854c27.016-7.951,47.506-19.026,69.808-30.015c35.029-17.254,74.542-34.273,150.88-38.583
			c3.436-0.192,6.198,2.806,5.739,6.215c-3.915,29.012-17.747,64.531-34.164,89.528c-1.554,2.366-1.6,5.418-0.024,7.777l9.28,13.905
			c3.391,5.074-0.559,11.821-6.639,11.351l-125.072-9.826l-48.063-3.774C58.263,270.398,101.315,294.5,150,294.5
			c79.727,0,144.36-64.632,144.36-144.359C294.359,70.414,229.727,5.782,150,5.782z M94,90H80.177H63v-8.943
			C63,76.728,66.584,73,70.917,73h9.26h6.176C90.683,73,94,76.728,94,81.057V90z"/>
		<path fill="#243547" d="M80,156.886c-22,10.988-42.702,22.063-69.718,30.015c4.448,16.943,11.85,32.671,21.7,46.578L80,237.253
			V156.886z"/>
		<path fill="#F3F5F8" d="M205.16,247.079c6.08,0.471,10.074-6.276,6.684-11.351l-9.259-13.905
			c-1.575-2.359-1.518-5.411,0.036-7.777c16.417-24.997,30.254-60.516,34.169-89.528c0.459-3.409-2.389-6.408-5.824-6.215
			C154.628,122.613,115,139.631,80,156.886v80.367L205.16,247.079z M157.965,176.487c1.934,0,3.502,1.567,3.502,3.504
			c0,5.409,3.533,9.943,8.533,11.457v-24.134c-3-1.293-4.504-3.994-4.504-7.156c0-4.407,3.574-7.985,7.981-7.985
			c4.413,0,7.988,3.578,7.988,7.985c0,3.144-1.466,5.831-4.466,7.136v24.154c5-1.514,8.535-6.048,8.535-11.457
			c0-1.937,1.566-3.504,3.506-3.504c1.937,0,3.503,1.567,3.503,3.504c0,10.499-8.541,19.044-19.039,19.044
			c-10.504,0-19.047-8.545-19.047-19.044C154.458,178.055,156.026,176.487,157.965,176.487z"/>
		<path fill="#243547" d="M70.917,73C66.584,73,63,76.728,63,81.057V90h17V73H70.917z"/>
		<path fill="#F3F5F8" d="M86.353,73H80v17h14v-8.943C94,76.728,90.683,73,86.353,73z"/>
		<path fill="#243547" d="M173.506,199.035c10.498,0,19.039-8.545,19.039-19.044c0-1.937-1.565-3.504-3.502-3.504
			c-1.939,0-3.508,1.567-3.508,3.504c0,5.409-3.535,9.943-8.535,11.457v-24.154c3-1.305,4.467-3.992,4.467-7.136
			c0-4.407-3.577-7.985-7.99-7.985c-4.407,0-7.982,3.578-7.982,7.985c0,3.162,1.506,5.863,4.506,7.156v24.134
			c-5-1.514-8.533-6.048-8.533-11.457c0-1.937-1.569-3.504-3.503-3.504c-1.938,0-3.506,1.567-3.506,3.504
			C154.458,190.49,163.002,199.035,173.506,199.035z"/>
		<path fill="#243547" d="M80,149.082V97H63v16H35.424c-1.778,0-4.437,1.031-5.908,2.03l-17.068,11.822
			C9.567,128.811,8,132.169,8,135.65v38.805c0,1.877,0.516,3.741,0.906,5.592c22.556-6.68,40.342-15.589,59.14-24.967
			C72.055,153.082,76,151.078,80,149.082z"/>
		<path fill="#F3F5F8" d="M125,130.119v-9.683c0-3.868-3.098-7.436-6.964-7.436H94V97H80v52.082C94,142.418,108,135.878,125,130.119
			z"/>
		<path fill="#C1C7CE" d="M51.311,55.131c2.199,3.044,5.755,5.047,9.799,5.047c1.32,0,2.565-0.264,3.755-0.654
			c-0.019,0.218-0.068,0.431-0.068,0.654c0,4.146,3.362,7.503,7.507,7.503c4.146,0,7.505-3.194,7.505-7.34
			c0-4.144-3.36-7.341-7.505-7.341c-0.005,0-0.005,0-0.005,0c0.583-2,0.916-3.133,0.916-4.766c0-6.509-5.141-11.886-11.583-12.161
			c-7.614,5.902-14.624,12.504-20.915,19.787c1.368,0.377,2.802,0.575,4.29,0.575C47.247,56.436,49.375,55.959,51.311,55.131z"/>
	</g>
</g>
<g id="travel_c" display="none">
	<g display="inline">
		<path fill="none" d="M150.641,5.782C77.508,5.782,17.087,60.167,7.59,130.697l9.132,1.532c9.48,1.785,16.512-1.198,24.588-9.833
			c9.05-9.686,22.509-20.941,31.955-28.695c14.31-11.733,17.383-12.162,30.655-10.26c11.317,1.61,91.901,14.083,100.679,16.172
			c13.696,3.274,19.661,8.534,17.322,16.804c-1.772,6.251-8.452,13.549-29.191,10.349c4.331,6.346,0.531,12.871-6.001,15.484
			c-5.792,2.315-13.168,3.527-20.729,0.222c-3.648,13.251-12.093,15.222-31.391,11.821c-7.366-1.306-13.807-2.351-18.551-2.99
			c-1.257-0.17-2.259-0.272-3.264-0.385c1.388-0.933,2.813-1.824,4.508-2.501c21.7-8.678,38.832-15.529,31.304-34.354
			c-5.787-14.471-24.321-12.075-33.292-8.705l-30.784,12.312c-16.57,6.625-25.806,30.556-25.806,30.556s16.006-15.52,29.639-20.971
			l30.706-12.279c0.058-0.023,16.628-5.907,20.13,2.85c3.207,8.019-4.518,12.731-17.55,17.942
			c-21.249,8.498-27.686,22.234-27.686,22.234s-11.713,18.682-15.517,23.883c-8.997,12.304-13.975,18.773-38.857,19.184
			c-7.007,0.115-16.251-0.16-24.244-0.494C35.802,255.43,88.656,294.5,150.641,294.5C230.368,294.5,295,229.868,295,150.141
			C295,70.414,230.368,5.782,150.641,5.782z M150,252c-38.66,0-70-1.567-70-3.5c0-0.813,5.548-1.742,14.832-2.336L97.713,237h0.156
			c-0.06-1,0.015-1.887,0.015-2.939c0-28.09,22.116-50.813,50.116-52.039v-1.882c-2-0.451-3.457-1.44-3.457-2.592
			c0-1.579,2.433-2.855,5.542-2.855c3.112,0,5.415,1.276,5.415,2.855c0,1.151-1.5,2.142-3.5,2.592v1.882
			c28,1.226,50.116,24.133,50.116,52.224c0,1.052-0.011,2.086-0.071,3.123l3.056,8.978c9.299,0.594,14.878,1.342,14.878,2.154
			C219.979,250.433,188.66,252,150,252z"/>
		<path opacity="0.3" fill="#F3F5F8" d="M205.144,246.346l0.555,1.654H150H94.302l0.53-1.652C85.548,246.941,80,247.688,80,248.5
			c0,1.933,31.34,3.5,70,3.5s70-1.567,70-3.5C220,247.688,214.442,246.939,205.144,246.346z"/>
		<path fill="#F3F5F8" d="M150,183.787h-2.342v-1.766c-27.789,1.226-49.945,24.133-49.945,52.224c0,1.052,0.097,2.086,0.156,3.123
			H150V183.787z"/>
		<path fill="#C6D0DF" d="M150,183.787v53.581h52.131c0.06-1.037,0.156-2.071,0.156-3.123c0-28.091-22.157-50.998-49.945-52.224
			v1.766H150z"/>
		<path fill="#B6B8BA" d="M150,183.787v-1.825V180.4c-0.837,0-1.628-0.095-2.342-0.261v1.882v1.766H150z"/>
		<path fill="#57606E" d="M150,181.962V184h2v-1.979v-1.882c0,0.166-1.163,0.261-2,0.261V181.962z"/>
		<path fill="#F3F5F8" d="M152.342,180.14c1.939-0.45,3.286-1.44,3.286-2.592c0-1.579-2.516-2.855-5.628-2.855
			c-3.109,0-5.628,1.276-5.628,2.855c0,1.151,1.348,2.141,3.286,2.592c0.714,0.166,1.505,0.261,2.342,0.261
			S151.628,180.306,152.342,180.14z"/>
		<polygon fill="#C1C5CD" points="150,248 150,237 97.869,237 97.713,237 94.832,246.164 94.302,248 		"/>
		<polygon fill="#959CA7" points="150,248 205.698,248 205.144,246.162 202.131,237 150,237 		"/>
		<path fill="#243547" d="M39.59,201.069c24.882-0.41,29.86-6.88,38.857-19.184c3.804-5.201,15.517-23.883,15.517-23.883
			s6.437-13.737,27.686-22.234c13.032-5.211,20.757-9.924,17.55-17.942c-3.502-8.757-20.072-2.873-20.13-2.85l-30.706,12.279
			c-13.633,5.451-29.639,20.971-29.639,20.971s9.236-23.931,25.806-30.556l30.784-12.312c8.971-3.37,27.505-5.766,33.292,8.705
			c7.528,18.825-9.604,25.675-31.304,34.354c-1.695,0.677-3.121,1.568-4.508,2.501c1.005,0.112,2.006,0.215,3.264,0.385
			c4.744,0.64,11.185,1.685,18.551,2.99c19.298,3.4,27.743,1.43,31.391-11.821c7.561,3.306,14.937,2.094,20.729-0.222
			c6.532-2.613,10.332-9.138,6.001-15.484c20.739,3.201,27.419-4.097,29.191-10.349c2.339-8.271-3.626-13.53-17.322-16.804
			c-8.777-2.09-89.362-14.562-100.679-16.172c-13.272-1.902-16.345-1.474-30.655,10.26c-9.446,7.754-22.905,19.01-31.955,28.695
			c-8.076,8.635-15.108,11.618-24.588,9.833l-9.132-1.532c-0.856,6.36-1.308,12.849-1.308,19.444
			c0,17.742,3.208,34.733,9.063,50.434C23.339,200.909,32.583,201.185,39.59,201.069z"/>
	</g>
</g>
<g id="cars" display="none">
	<g display="inline">
		<path fill="none" d="M150.641,5.782c-37.811,0-72.221,14.544-97.957,38.333c10.359-0.508,22.18-0.915,33.953-0.915
			c31.184,0,62.022,2.9,65.906,2.9c7.796,0,35.773,42.407,44.08,78.508c28.161,5.446,23.212,53.591,22.982,55.688
			c-0.164,1.51-1.445,2.703-2.967,2.703h-0.006l-130.349-0.361l-76.295,0.39c0.526,2.276,1.107,3.972,1.74,6.972H214.69
			c1.646,0,3.31,0.881,3.31,2.535v19.242c0,1.653-1.664,3.223-3.31,3.223H210v18.732c0,7.883-6.073,14.268-13.96,14.268h-0.092
			h-9.418h-0.096c-7.887,0-14.435-6.385-14.435-14.268V215H21.531c23.711,47,72.616,79.617,129.109,79.617
			c79.728,0,144.359-64.69,144.359-144.418S230.368,5.782,150.641,5.782z"/>
		<path fill="#C6D0DF" d="M172.243,215H210v18.732c0,7.883-6.165,14.268-14.052,14.268h0.092c7.887,0,13.96-6.385,13.96-14.268V215
			h4.69c1.646,0,3.31-1.569,3.31-3.223v-19.242c0-1.654-1.664-2.535-3.31-2.535H11.728c2.485,8,5.786,17,9.804,25h150.62H172.243z"
			/>
		<path fill="#99AAC3" d="M210,233.732V215h-37.757H172v18.732c0,7.883,6.548,14.268,14.435,14.268h0.096h9.418
			C203.835,248,210,241.615,210,233.732z"/>
		<path fill="#243547" d="M216.632,183h0.006c1.521,0,2.803-1.193,2.967-2.703c0.229-2.097,5.179-50.219-22.982-55.666
			c-8.307-36.101-36.284-78.519-44.08-78.519c-3.883,0-34.722-2.905-65.906-2.905c-11.773,0-23.593,0.403-33.953,0.912
			c-5.419,5.01-10.455,10.426-15.055,16.207c18.09-1.985,47.09-2.181,48.648-2.19c-0.008,0,4.774-0.086,11.76-0.086
			c22.038,0,48.19,1.032,53.108,4.539c7.146,5.108,27.103,60.073,27.898,62.427c0.104,0.305,0.053,0.473-0.133,0.734
			c-0.187,0.26-0.489,0.25-0.81,0.25H60.932H8.249c-1.286,8-1.966,15.864-1.966,23.978c0,11.225,1.281,22.231,3.706,32.72
			l76.295-0.1L216.632,183z M183.044,142.094c7.336,0,13.276,5.941,13.276,13.275c0,7.327-5.94,13.269-13.276,13.269
			c-7.333,0-13.269-5.941-13.269-13.269C169.775,148.035,175.711,142.094,183.044,142.094z M48,150h80v19H48V150z"/>
		<path fill="#C6D0DF" d="M98.038,57.886c-6.986,0-11.768,0.168-11.76,0.168c-1.558,0.009-30.559,0.081-48.648,2.066
			C22.698,78.882,12.346,102,8.249,126h52.683L98.038,57.886z"/>
		<path fill="#C6D0DF" d="M183.044,168.638c7.336,0,13.276-5.941,13.276-13.269c0-7.334-5.94-13.275-13.276-13.275
			c-7.333,0-13.269,5.941-13.269,13.275C169.775,162.696,175.711,168.638,183.044,168.638z"/>
		<path fill="#99AAC3" d="M178.102,126c0.32,0,0.623,0.009,0.81-0.251c0.186-0.262,0.236-0.511,0.133-0.815
			c-0.796-2.354-20.753-57.278-27.898-62.386c-4.917-3.507-31.07-4.682-53.108-4.682L60.932,126H178.102z"/>
		<rect x="48" y="150" fill="#C6D0DF" width="80" height="19"/>
	</g>
</g>
<g id="Capa_8">
	<g>
		<path fill="none" d="M150.641,5.782c-30.243,0-58.309,9.307-81.504,25.203c3.257-0.292,6.55-0.456,9.882-0.456
			c0.086,0,0.166,0.004,0.25,0.004c27.706,0.061,53.028,10.445,72.356,27.472l-0.134,0.238
			c12.185,10.731,21.968,24.116,28.444,39.253c21.858,2.453,38.851,20.989,38.851,43.504c0,22.642-17.182,41.355-39.217,43.641
			c-4.002,9.14-9.211,17.359-15.431,25.359h0.172c-20.128,25-50.768,40.478-85.042,40.557c-0.083,0-0.164-0.041-0.25-0.041
			c-13.521,0-26.477-2.481-38.452-6.965c26.479,31.18,65.962,50.961,110.074,50.961c79.728,0,144.359-64.638,144.359-144.365
			S230.368,5.782,150.641,5.782z"/>
		<path fill="#C6D0DF" d="M7.253,133.409c-0.014,0.123-0.028,0.246-0.042,0.369l0.042,0.01V133.409z"/>
		<polygon fill="#C6D0DF" points="61.765,88.479 61.643,90.071 63.929,89.876 64.163,88.283 62.789,87.203 		"/>
		<path fill="#C6D0DF" d="M10.73,135.523l3.01,0.552l4.663,1.276l6.576,7.499l8.404,0.63l0.819,6.856l-5.751,4.021l-0.267,6.125
			l-0.825,3.745l6.003,7.523c5.162-0.008,10.318-0.177,15.491-0.533l0.736,9.775c-2.169,0.15-4.574,0.263-6.749,0.354
			c1.693,1.247,3.159,2.532,3.159,2.532V204.7l2.512,0.644l-1.439,8.678l3.895,5.12l-0.682,8.606l5.091,8.915l6.518,5.687
			l6.547,0.121l0.642-2.102l-4.807-4.051l0.278-2.01l0.867-2.467l0.179-2.51l-3.252-0.092l-1.641-2.065l2.702-2.604l0.365-1.96
			l-3.013-0.868l0.173-1.824l4.304-0.651l6.536-3.141l2.188-4.023l5.306-6.783l1.553-1.99l-1.553-6.839l-0.009-0.023l0.009-0.011
			l2.095-3.641l6.307,0.192l4.241-3.36l1.377-13.233l4.708-5.981l0.826-3.842l-4.289-1.374l-2.842-4.652l-9.685-0.094l-2.737-1.044
			l-4.943-1.881l-0.363-5.479l-2.563-4.479l-6.941-0.098l-4.021-6.298l-3.564-1.738l-0.18,1.917l-6.483,0.384l-2.381-3.307
			l-6.763-1.375l-5.57,6.447l-8.78-1.492l-0.633-9.884l-6.41-1.094l2.572-4.849l-0.741-2.788l-8.412,5.625l-5.182-0.633
			c-0.193,1.277-0.367,2.561-0.526,3.849l3.706,0.528L10.73,135.523z M86.644,167.6l2.39,9.535
			c-6.53,1.482-13.12,2.727-19.586,3.689l-1.595-9.684C74.055,170.213,80.382,169.023,86.644,167.6z"/>
		<path fill="#C6D0DF" d="M151,104.559v-4.63l-12.476,0.988L134.551,103h-4.895l-2.553-0.266L121,106.012v6.211l-12.006,8.901
			L110.15,125h2.467l-0.646,3.435l-1.734,0.575l-0.086,9.172L120.658,150h4.571h0.276h6.541c-0.541-3-0.692-5.841-0.692-8.751
			C131.354,126.046,139,112.409,151,104.559z"/>
		<polygon fill="#C6D0DF" points="137.061,74.709 135.141,71.603 134.229,67.216 130.814,67.944 130,69.495 130,71.237 
			131.541,72.424 133.923,73.979 134.097,75.758 131.417,76.261 131.033,80 134.229,80 138.482,79.642 140.669,77.059 
			138.34,76.162 		"/>
		<path fill="#C6D0DF" d="M69.886,85.424L69.235,87H66v2h0.831c0,0,0.049,0.259,0.114,0.712l1.93-0.204l1.203-0.771l0.316-1.523
			l1.569-0.143l0.606-1.273l-1.433-0.346L69.886,85.424z"/>
		<polygon fill="#C6D0DF" points="126.036,72.837 124,76.355 124,79 126.233,79 130.75,75.621 130.945,73.154 128.916,72.194 		"/>
		<path fill="#C6D0DF" d="M153.955,179.404l-0.949,1.813l0.028,3.657l2.966,3.192v8.79l5,5.652V210h3.138
			c6.22-8,11.429-16.22,15.431-25.359c-1.502,0.155-3.025,0.192-4.568,0.192C167.37,184.833,160.2,182.834,153.955,179.404z"/>
		<path fill="#C6D0DF" d="M29.675,111.209l-0.037,3.957l4.665,2.169l-0.365-6.759l3.351-3.382l6.789-4.454l0.456-3.132l6.768-7.036
			l7.188-3.981l-0.636-0.522l4.87-4.583l1.782,0.472l0.822,1.025l1.849-2.05l0.448-0.196l-1.799-0.286L64,81.767v-1.989L64.638,79
			h2.401l1.1,0.423l0.822,1.895L70,81.111v-0.167l0.465,0.113l3.432-0.52l0.328-1.649L76,79.367v1.787L74.574,82h0.007l0.26,2.149
			l4.427,1.46l1.68,0.567c0,0,0.007,0.053,0.015,0.096l1.4-0.107l0.096-2.642l-3.191-1.452l-1.649-0.749l-0.273-1.271l1.922-0.654
			l2.095-0.712l0.176-3.845l-2.271-1.385l-1.922-1.171l-0.274-6.301L71.317,69h-2.111l0.555-5.121l-7.68-1.941L59,64.291v7.475
			l-5.988,1.846l-2.408,4.867L48,78.887v-6.231l-5.488-0.754l-2.742-1.788l-1.104-4.039l9.801-5.737l4.794-1.46l0.484,3.221
			l2.677-0.139l0.202-1.622l2.795-0.398l0.046-0.565l-1.197-0.497l-0.275-1.713l3.437-0.289l2.071-2.161l0.12-0.153l0.021,0.01
			l0.635-0.655l7.22-0.914l3.195,2.714l-8.369,4.458l10.653,2.451L78.35,59h0.918h3.744l1.464-3.042L81,55.2v-3.93l-1.913-0.929
			l-8.133-3.643l-7.088,0.823l-3.999,2.105l0.288,5.113l-4.2-0.64L55.31,51.27l4.034-3.659l-7.313-0.359l-2.099,0.635l-0.912,2.465
			l2.735,0.464l-0.549,2.738l-4.652,0.273l-0.742,1.824l-4.416,0.123c-14.356,16.605-24.99,36.517-30.605,58.44l5.915-3
			L29.675,111.209z"/>
		<path fill="#C6D0DF" d="M145.246,62.325l-2.141,2.324l0.496,2.704l2.608,0.364l1.584,3.943l4.51-1.877L153.048,75h-1.36
			l-3.707-0.491l-4.112,0.719l-3.976,5.633l-5.684,0.898l-0.827,4.871l2.404,0.571l-0.686,3.128l-5.657-1.132l-5.18,1.133
			l-1.093,2.883l0.895,6.05l3.041,1.423l5.099-0.031l3.441-0.315l1.053-2.741l5.385-6.993l3.543,0.725l3.484-3.154l0.65,2.467
			l8.592,5.792l-1.049,1.411l-3.87-0.208l1.485,2.11l2.385,0.523l2.783-1.163l-0.047-3.362l1.242-0.619l-0.996-1.055l-5.73-3.011
			L153.048,87h4.766l1.521,1.324l4.099,3.441l0.174,4.23l2.12,2.232c0.937-0.202,1.883-0.389,2.841-0.53l0.871-3.42l2.945-1.609
			l0.497,4.599c0.702-0.034,1.408-0.055,2.119-0.055c1.669,0,3.314,0.103,4.935,0.284c-6.477-15.137-16.26-28.522-28.444-39.253
			l-1.172,2.095L145.246,62.325z"/>
		<polygon fill="#274548" points="79.268,196.491 79.268,196.457 79.259,196.468 		"/>
		<path fill="#243547" d="M79.268,250.467c34.274-0.079,64.914-15.925,85.042-40.646h-0.172h-3.458v-7.312l-4.191-5.652v-8.79
			l-3.21-3.192l-0.272-3.657l0.949-1.813c-11.172-6.135-19.37-17.001-21.909-29.902h-6.541l-0.276,0.731h-4.571l-10.508-11.967
			l0.086-9.322l1.734-0.639l0.646-3.564h-2.467l-1.008-3.747l12.155-8.771v-6.211l5.954-3.305l2.404,0.238h4.895l3.834-2.056
			l12.337-0.961v4.63c4.486-2.995,9.557-5.179,15.005-6.354l-2.12-2.255l-0.174-4.276l-4.099-3.533l-1.521-1.507h-4.766l1.509,4.244
			l5.73,3.194l0.996,1.055l-1.242,0.619l0.047,3.362l-2.783,1.163l-2.385-0.523l-1.485-2.11l3.87,0.208l1.049-1.411l-8.592-5.792
			l-0.65-2.467l-3.484,3.154l-3.543-0.725l-5.385,6.993l-1.053,2.741l-3.441,0.315l-5.099,0.031l-3.041-1.423l-0.895-6.05
			l1.093-2.883l5.18-1.133l5.657,1.133l0.686-3.127l-2.404-0.569l0.827-4.867l5.684-0.891l3.976-5.619l4.112-0.689l3.707,0.55h1.36
			l-0.744-5.277l-4.51,1.818l-1.584-3.943l-2.608-0.364l-0.496-2.704l2.141-2.324l5.072-1.987l1.172-2.095l0.134-0.238
			c-19.328-17.027-44.65-27.411-72.356-27.472c-0.083,0-0.164-0.004-0.25-0.004c-3.332,0-6.625,0.164-9.882,0.456
			c-10.283,7.047-19.611,15.385-27.741,24.79l4.416-0.123l0.742-1.824l4.652-0.273l0.549-2.738l-2.735-0.464l0.912-2.465
			l2.099-0.635l7.314,0.359l-4.032,3.659l0.648,2.829l4.206,0.64l-0.277-5.113l4.021-2.105l7.134-0.823l8.223,3.643l2.095,0.929
			v3.93l3.295,0.823l-1.646,3.107h-3.744H78.35l-1.375,3.562l-10.653-2.516l8.369-4.458l-3.195-2.714l-7.22,0.914l-0.635,0.655
			l-0.021-0.01l-0.12,0.153l-2.071,2.161l-3.437,0.289l0.275,1.713l1.197,0.497l-0.046,0.565l-2.795,0.398l-0.202,1.622
			l-2.677,0.139l-0.485-3.221l-4.794,1.46l-9.802,5.737l1.102,4.039l2.739,1.788l5.481,0.754v6.231l2.531-0.409l2.336-4.867
			l5.83-1.846v-7.475l3.239-2.445l7.838,1.849l-0.555,4.937h2.111l5.754-2.832l0.274,6.485l1.922,1.171l2.271,1.385l-0.176,3.845
			l-2.095,0.713v2.676l3.191,1.455l-0.096,2.647l-1.4,0.119c-0.007-0.043-0.015-0.072-0.015-0.072l-1.68-0.52l-4.427-1.364
			l-0.26-1.959h-0.007l1.784-1.228v-1.787l-1.922-0.479l-0.475,1.649l-3.366,0.52l-0.334-0.113v0.167l-1.169,0.179l-0.953-1.923
			l-1.1-0.479h-2.401l-1.089,0.891v1.989l2.051,0.685l2.025,0.286l-0.448,0.196l-1.849,2.05l-0.822-1.025l-1.782-0.472l-4.87,4.583
			l0.636,0.522l-7.188,3.981l-6.768,7.036l-0.456,3.132l-6.789,4.454l-3.351,3.382l0.365,6.759l-4.665-2.169l0.037-3.957
			l-12.971,0.005l-5.915,3c-1.189,4.644-2.152,9.378-2.879,14.191l5.182,0.633l8.412-5.625l0.741,2.788l-2.572,4.849l6.41,1.094
			l0.633,9.884l8.78,1.492l5.57-6.447l6.763,1.375l2.381,3.307l6.483-0.384l0.18-1.917l3.564,1.738l4.021,6.298l6.941,0.098
			l2.563,4.479l0.363,5.479l4.943,1.881l2.737,1.044l9.685,0.094l2.842,4.652l4.289,1.374l-0.826,3.842l-4.708,5.981l-1.377,13.233
			l-4.241,3.36l-6.307-0.192l-2.095,3.641v0.034l1.553,6.839l-1.553,1.99l-5.306,6.783l-2.188,4.023l-6.536,3.141l-4.304,0.651
			l-0.173,1.824l3.013,0.868l-0.365,1.96l-2.702,2.604l1.641,2.065l3.252,0.092l-0.179,2.51l-0.866,2.467l-0.278,2.01l4.808,4.051
			l-0.64,2.102l-6.543-0.121l-6.511-5.687l-5.077-8.915l0.71-8.606l-3.838-5.12l1.553-8.678l-2.285-0.644v-18.819
			c0,0-1.693-1.285-3.387-2.532c-3.316,0.139-6.628,0.219-9.9,0.221c-1.187,0-2.377-0.008-3.581-0.031l0.168-9.8
			c1.203,0.017,2.406,0.016,3.608,0.014l-6.003-7.523l0.825-3.745l0.267-6.125l5.751-4.021l-0.819-6.856l-8.404-0.63l-6.576-7.499
			l-4.663-1.276l-3.01-0.552l0.361-2.741l-3.706-0.528c-0.047,0.384-0.087,0.77-0.132,1.155v0.379l-0.042-0.01
			c-0.606,5.372-0.929,10.829-0.929,16.363c0,7.535,0.579,14.935,1.692,22.159c0.91,0.105,1.82,0.218,2.729,0.312l-1.002,8.859
			c5.157,23.304,15.944,44.488,30.865,62.058c11.975,4.483,24.931,6.942,38.452,6.942C79.104,250.471,79.185,250.467,79.268,250.467
			z M63.929,89.876l-2.287,0.194l0.122-1.592l1.024-1.275l1.375,1.08L63.929,89.876z M71.963,87.065l-1.569,0.138l-0.316,1.513
			l-1.203,0.75l-1.93,0.161c-0.065-0.453-0.114-0.797-0.114-0.797h-0.744v-1.625h3.148l0.651-1.678l1.25-0.024l1.433,0.294
			L71.963,87.065z M123.224,156.555l3.78,9.115c-6.178,2.33-12.488,4.473-18.76,6.373l-3.108-9.343
			C111.178,160.869,117.264,158.8,123.224,156.555z M130.75,75.44l-4.517,3.198h-2.56v-2.283l2.199-3.518l2.961-0.688l2.111,0.915
			L130.75,75.44z M138.482,79.692l-4.253,0.408h-3.196l0.359-3.79l2.655-0.553l-0.222-1.78l-2.479-1.555l-1.735-1.187v-1.742
			l1.009-1.551l3.609-0.729l0.911,4.387l1.92,3.106l1.279,1.465l2.329,0.909L138.482,79.692z"/>
		<path fill="#243547" d="M172.384,92.665l-2.945,1.606l-0.871,3.415c1.417-0.209,2.855-0.352,4.313-0.421L172.384,92.665z"/>
		<polygon fill="#274548" points="77.619,81.325 79.268,82.075 79.268,79.399 77.346,80.054 		"/>
		<path fill="#F3F5F8" d="M48.854,173.219c-5.173,0.356-10.329,0.525-15.491,0.533c-1.202,0.002-2.405,0.003-3.608-0.014l-0.168,9.8
			c1.203,0.023,2.394,0.031,3.581,0.031c3.272-0.002,6.584-0.082,9.9-0.221c2.175-0.092,4.352-0.204,6.521-0.354L48.854,173.219z"/>
		<path fill="#F3F5F8" d="M89.033,177.135l-2.39-9.535c-6.262,1.424-12.589,2.613-18.792,3.541l1.595,9.684
			C75.914,179.861,82.503,178.617,89.033,177.135z"/>
		<path fill="#F3F5F8" d="M108.244,172.043c6.271-1.9,12.582-4.043,18.76-6.373l-3.78-9.115c-5.959,2.245-12.046,4.314-18.088,6.146
			L108.244,172.043z"/>
		<path fill="#F3F5F8" d="M7.975,172.3c0.476,3.091,1.058,6.147,1.728,9.171l1.002-8.859C9.794,172.518,8.884,172.405,7.975,172.3z"
			/>
		<path fill="#99AAC3" d="M172.881,97.266c-1.458,0.069-2.896,0.212-4.313,0.421c-0.958,0.141-1.904,0.316-2.841,0.518
			c-5.448,1.175-10.519,3.359-15.005,6.354c-11.76,7.851-19.507,21.239-19.507,36.441c0,2.91,0.291,5.751,0.832,8.502
			c2.539,12.901,10.737,23.767,21.909,29.902c6.245,3.43,13.415,5.384,21.045,5.384c1.543,0,3.066-0.082,4.568-0.237
			c22.035-2.285,39.217-20.909,39.217-43.551c0-22.515-16.992-41.051-38.851-43.504c-1.62-0.182-3.266-0.284-4.935-0.284
			C174.289,97.212,173.583,97.232,172.881,97.266z M209.569,141c0,19.094-15.476,34.569-34.569,34.569S140.431,160.094,140.431,141
			s15.476-34.569,34.569-34.569S209.569,121.906,209.569,141z"/>
		<path fill="#C6D0DF" d="M175,106.431c-19.094,0-34.569,15.476-34.569,34.569s15.476,34.569,34.569,34.569
			s34.569-15.476,34.569-34.569S194.094,106.431,175,106.431z M177.701,149h-5.4l-1.112-38h7.624L177.701,149z M175.001,165.184
			c-2.78,0-4.686-2.145-4.686-4.924c0-2.859,1.985-4.925,4.686-4.925c2.859,0,4.686,2.065,4.686,4.925
			C179.687,163.039,177.86,165.184,175.001,165.184z"/>
		<polygon fill="#243547" points="172.301,149 177.701,149 178.813,111 171.188,111 		"/>
		<path fill="#243547" d="M175.001,155.335c-2.7,0-4.686,2.065-4.686,4.925c0,2.779,1.905,4.924,4.686,4.924
			c2.859,0,4.686-2.145,4.686-4.924C179.687,157.4,177.86,155.335,175.001,155.335z"/>
	</g>
</g>
</svg>
